Sat Sep 22 23:17:20 2018    stats

         202262 function calls in 2.672 seconds

   Ordered by: internal time
   List reduced from 27 to 5 due to restriction <0.2>

   ncalls  tottime  percall  cumtime  percall filename:lineno(function)
    16180    1.577    0.000    1.577    0.000 {select.select}
    15768    0.467    0.000    0.983    0.000 serialposix.py:460(read)
    16180    0.107    0.000    0.119    0.000 serialutil.py:123(__init__)
    15768    0.106    0.000    0.106    0.000 {posix.read}
    15768    0.059    0.000    0.078    0.000 serialutil.py:133(expired)


   Ordered by: internal time
   List reduced from 27 to 5 due to restriction <0.2>

Function                     was called by...
                                 ncalls  tottime  cumtime
{select.select}              <-   15768    0.152    0.152  serialposix.py:460(read)
                                    412    1.424    1.424  serialposix.py:514(write)
serialposix.py:460(read)     <-
serialutil.py:123(__init__)  <-   15768    0.100    0.113  serialposix.py:460(read)
                                    412    0.007    0.007  serialposix.py:514(write)
{posix.read}                 <-   15768    0.106    0.106  serialposix.py:460(read)
serialutil.py:133(expired)   <-   15768    0.059    0.078  serialposix.py:460(read)


